test0
[3527] Connecting to iptimeHome
[6177] Connected to WiFi
[6178] IP: 192.168.0.22
[6178] Connecting to mqtt.mydevices.com:1883
[37380] MQTT connect failed, error -1
[68737] MQTT connect failed, error -1
[70850] Network connect failed
[72406] Network connect failed
[73962] Network connect failed
[75518] Network connect failed
[77074] Network connect failed
[78630] Network connect failed
[80186] Network connect failed
[81742] Network connect failed
[83298] Network connect failed
