2018-04-15 15:21:40	Message	[392199] Network connect failed
2018-04-15 15:21:41	Message	[393219] Network connect failed
2018-04-15 15:21:42	Message	[394239] Network connect failed
2018-04-15 15:21:43	Message	[395259] Network connect failed
2018-04-15 15:21:44	Message	[396279] Network connect failed
2018-04-15 15:21:45	Message	[397299] Network connect failed
2018-04-15 15:21:46	Message	[398319] Network connect failed
2018-04-15 15:21:47	Message	[399339] Network connect failed
2018-04-15 15:21:48	Message	[400359] Network connect failed
2018-04-15 15:21:49	Message	[401379] Network connect failed
2018-04-15 15:21:50	Message	[402399] Network connect failed
2018-04-15 15:21:51	Message	[403419] Network connect failed
2018-04-15 15:21:52	Message	[404439] Network connect failed
2018-04-15 15:21:53	Message	[405459] Network connect failed
2018-04-15 15:21:54	Message	[406479] Network connect failed
2018-04-15 15:21:55	Message	[407499] Network connect failed
2018-04-15 15:21:56	Message	[408519] Network connect failed
2018-04-15 15:21:57	Message	[409539] Network connect failed
2018-04-15 15:21:58	Message	[410559] Network connect failed
2018-04-15 15:21:59	Message	[411579] Network connect failed
2018-04-15 15:22:00	Message	[412599] Network connect failed
2018-04-15 15:22:02	Message	[413619] Network connect failed
2018-04-15 15:22:03	Message	[414639] Network connect failed
2018-04-15 15:22:04	Message	[415659] Network connect failed
