Added Component: Designator=C1(CAPAE9083X100M)
Added Component: Designator=C2(1608[0603])
Added Component: Designator=C3(CAPAE5143X53M)
Added Component: Designator=C4(CAPAE5143X53M)
Added Component: Designator=C5(1608[0603])
Added Component: Designator=C6(CAPAE5143X53M)
Added Component: Designator=C7(CAPAE5143X53M)
Added Component: Designator=C8(CAPAE9083X100M)
Added Component: Designator=C9(CAPAE5143X53M)
Added Component: Designator=CRYSTAL1(crystal16m)
Added Component: Designator=D1(1608[0603])
Added Component: Designator=D2(DIOM5025X20N)
Added Component: Designator=D3(DIOM5025X20N)
Added Component: Designator=D4(DIOM5025X20N)
Added Component: Designator=D5(DIOM5025X20N)
Added Component: Designator=D6(DIOM5025X20N)
Added Component: Designator=D7(DIOM5025X20N)
Added Component: Designator=D8(DIOM5025X20N)
Added Component: Designator=D9(DIOM5025X20N)
Added Component: Designator=D10(1608[0603])
Added Component: Designator=D11(1608[0603])
Added Component: Designator=H1(HDR1X8)
Added Component: Designator=H2(HDR1X6)
Added Component: Designator=H3(HDR1X4)
Added Component: Designator=IC1(DIP28)
Added Component: Designator=IC2(l295cip)
Added Component: Designator=LM1(D2PAK_N)
Added Component: Designator=LM2(SOT223_N)
Added Component: Designator=M1(HDR1X6)
Added Component: Designator=P1(HDR1X2)
Added Component: Designator=PCB1(esp8266holder)
Added Component: Designator=R1(1608[0603])
Added Component: Designator=R2(1608[0603])
Added Component: Designator=R3(1608[0603])
Added Component: Designator=R4(1608[0603])
Added Component: Designator=R5(1608[0603])
Added Component: Designator=R6(1608[0603])
Added Component: Designator=R7(1608[0603])
Added Component: Designator=R8(1608[0603])
Added Component: Designator=SW1(HDR1X2)
Added Component: Designator=SW2(SODFL660X590-2N)
Added Pin To Net: NetName=+3.3 Pin=C7-1
Added Pin To Net: NetName=+3.3 Pin=H2-6
Added Pin To Net: NetName=+3.3 Pin=LM2-3
Added Pin To Net: NetName=+3.3 Pin=PCB1-2
Added Pin To Net: NetName=+3.3 Pin=PCB1-4
Added Pin To Net: NetName=+3.3 Pin=R3-2
Added Net: Name=+3.3
Added Pin To Net: NetName=+5 Pin=C4-1
Added Pin To Net: NetName=+5 Pin=D11-1
Added Pin To Net: NetName=+5 Pin=H3-1
Added Pin To Net: NetName=+5 Pin=IC1-7
Added Pin To Net: NetName=+5 Pin=IC1-20
Added Pin To Net: NetName=+5 Pin=IC1-21
Added Pin To Net: NetName=+5 Pin=LM1-3
Added Pin To Net: NetName=+5 Pin=R2-2
Added Pin To Net: NetName=+5 Pin=SW1-1
Added Net: Name=+5
Added Pin To Net: NetName=BLACKPIN Pin=H2-5
Added Pin To Net: NetName=BLACKPIN Pin=IC1-24
Added Net: Name=BLACKPIN
Added Pin To Net: NetName=ESP8266RX Pin=IC1-3
Added Pin To Net: NetName=ESP8266RX Pin=PCB1-1
Added Net: Name=ESP8266RX
Added Pin To Net: NetName=ESP8266TX Pin=IC1-2
Added Pin To Net: NetName=ESP8266TX Pin=PCB1-5
Added Net: Name=ESP8266TX
Added Pin To Net: NetName=GND Pin=C1-2
Added Pin To Net: NetName=GND Pin=C2-1
Added Pin To Net: NetName=GND Pin=C3-2
Added Pin To Net: NetName=GND Pin=C4-2
Added Pin To Net: NetName=GND Pin=C5-1
Added Pin To Net: NetName=GND Pin=C6-2
Added Pin To Net: NetName=GND Pin=C7-2
Added Pin To Net: NetName=GND Pin=C8-2
Added Pin To Net: NetName=GND Pin=C9-2
Added Pin To Net: NetName=GND Pin=D6-1
Added Pin To Net: NetName=GND Pin=D7-1
Added Pin To Net: NetName=GND Pin=D8-1
Added Pin To Net: NetName=GND Pin=D9-1
Added Pin To Net: NetName=GND Pin=H1-8
Added Pin To Net: NetName=GND Pin=H2-2
Added Pin To Net: NetName=GND Pin=H2-4
Added Pin To Net: NetName=GND Pin=H3-2
Added Pin To Net: NetName=GND Pin=IC1-8
Added Pin To Net: NetName=GND Pin=IC1-22
Added Pin To Net: NetName=GND Pin=IC2-1
Added Pin To Net: NetName=GND Pin=IC2-8
Added Pin To Net: NetName=GND Pin=IC2-15
Added Pin To Net: NetName=GND Pin=LM1-2
Added Pin To Net: NetName=GND Pin=LM2-2
Added Pin To Net: NetName=GND Pin=P1-1
Added Pin To Net: NetName=GND Pin=PCB1-8
Added Pin To Net: NetName=GND Pin=R1-1
Added Pin To Net: NetName=GND Pin=R4-1
Added Pin To Net: NetName=GND Pin=R7-1
Added Pin To Net: NetName=GND Pin=R8-1
Added Pin To Net: NetName=GND Pin=SW2-1
Added Net: Name=GND
Added Pin To Net: NetName=INT1 Pin=H1-3
Added Pin To Net: NetName=INT1 Pin=IC1-13
Added Pin To Net: NetName=INT1 Pin=IC2-5
Added Net: Name=INT1
Added Pin To Net: NetName=INT2 Pin=H1-4
Added Pin To Net: NetName=INT2 Pin=IC1-12
Added Pin To Net: NetName=INT2 Pin=IC2-7
Added Net: Name=INT2
Added Pin To Net: NetName=INT3 Pin=H1-5
Added Pin To Net: NetName=INT3 Pin=IC1-11
Added Pin To Net: NetName=INT3 Pin=IC2-10
Added Net: Name=INT3
Added Pin To Net: NetName=INT4 Pin=H1-6
Added Pin To Net: NetName=INT4 Pin=IC1-6
Added Pin To Net: NetName=INT4 Pin=IC2-12
Added Net: Name=INT4
Added Pin To Net: NetName=MOTER9 Pin=IC2-9
Added Pin To Net: NetName=MOTER9 Pin=R5-1
Added Pin To Net: NetName=MOTER9 Pin=R6-1
Added Net: Name=MOTER9
Added Pin To Net: NetName=MOTERENA Pin=H1-2
Added Pin To Net: NetName=MOTERENA Pin=IC1-28
Added Pin To Net: NetName=MOTERENA Pin=IC2-6
Added Pin To Net: NetName=MOTERENA Pin=R5-2
Added Net: Name=MOTERENA
Added Pin To Net: NetName=MOTERENB Pin=H1-7
Added Pin To Net: NetName=MOTERENB Pin=IC1-27
Added Pin To Net: NetName=MOTERENB Pin=IC2-11
Added Pin To Net: NetName=MOTERENB Pin=R6-2
Added Net: Name=MOTERENB
Added Pin To Net: NetName=MOUTPUT1 Pin=D2-1
Added Pin To Net: NetName=MOUTPUT1 Pin=D6-2
Added Pin To Net: NetName=MOUTPUT1 Pin=IC2-2
Added Pin To Net: NetName=MOUTPUT1 Pin=M1-1
Added Net: Name=MOUTPUT1
Added Pin To Net: NetName=MOUTPUT2 Pin=D3-1
Added Pin To Net: NetName=MOUTPUT2 Pin=D7-2
Added Pin To Net: NetName=MOUTPUT2 Pin=IC2-3
Added Pin To Net: NetName=MOUTPUT2 Pin=M1-3
Added Net: Name=MOUTPUT2
Added Pin To Net: NetName=MOUTPUT3 Pin=D4-1
Added Pin To Net: NetName=MOUTPUT3 Pin=D9-2
Added Pin To Net: NetName=MOUTPUT3 Pin=IC2-13
Added Pin To Net: NetName=MOUTPUT3 Pin=M1-4
Added Net: Name=MOUTPUT3
Added Pin To Net: NetName=MOUTPUT4 Pin=D5-1
Added Pin To Net: NetName=MOUTPUT4 Pin=D8-2
Added Pin To Net: NetName=MOUTPUT4 Pin=IC2-14
Added Pin To Net: NetName=MOUTPUT4 Pin=M1-6
Added Net: Name=MOUTPUT4
Added Pin To Net: NetName=NetC1_1 Pin=C1-1
Added Pin To Net: NetName=NetC1_1 Pin=H2-1
Added Pin To Net: NetName=NetC1_1 Pin=R3-1
Added Net: Name=NetC1_1
Added Pin To Net: NetName=NetC2_2 Pin=C2-2
Added Pin To Net: NetName=NetC2_2 Pin=CRYSTAL1-2
Added Pin To Net: NetName=NetC2_2 Pin=IC1-9
Added Net: Name=NetC2_2
Added Pin To Net: NetName=NetC5_2 Pin=C5-2
Added Pin To Net: NetName=NetC5_2 Pin=CRYSTAL1-1
Added Pin To Net: NetName=NetC5_2 Pin=IC1-10
Added Net: Name=NetC5_2
Added Pin To Net: NetName=NetD1_1 Pin=D1-1
Added Pin To Net: NetName=NetD1_1 Pin=IC1-19
Added Net: Name=NetD1_1
Added Pin To Net: NetName=NetD1_2 Pin=D1-2
Added Pin To Net: NetName=NetD1_2 Pin=R4-2
Added Net: Name=NetD1_2
Added Pin To Net: NetName=NetD10_2 Pin=D10-2
Added Pin To Net: NetName=NetD10_2 Pin=R7-2
Added Net: Name=NetD10_2
Added Pin To Net: NetName=NetD11_2 Pin=D11-2
Added Pin To Net: NetName=NetD11_2 Pin=R8-2
Added Net: Name=NetD11_2
Added Pin To Net: NetName=NetIC1_1 Pin=IC1-1
Added Pin To Net: NetName=NetIC1_1 Pin=R2-1
Added Pin To Net: NetName=NetIC1_1 Pin=SW2-2
Added Net: Name=NetIC1_1
Added Pin To Net: NetName=RAINPIN Pin=H3-4
Added Pin To Net: NetName=RAINPIN Pin=IC1-23
Added Net: Name=RAINPIN
Added Pin To Net: NetName=TECKPIN Pin=IC1-5
Added Pin To Net: NetName=TECKPIN Pin=R1-2
Added Pin To Net: NetName=TECKPIN Pin=SW1-2
Added Net: Name=TECKPIN
Added Pin To Net: NetName=VCC Pin=C3-1
Added Pin To Net: NetName=VCC Pin=C6-1
Added Pin To Net: NetName=VCC Pin=C8-1
Added Pin To Net: NetName=VCC Pin=C9-1
Added Pin To Net: NetName=VCC Pin=D2-2
Added Pin To Net: NetName=VCC Pin=D3-2
Added Pin To Net: NetName=VCC Pin=D4-2
Added Pin To Net: NetName=VCC Pin=D5-2
Added Pin To Net: NetName=VCC Pin=D10-1
Added Pin To Net: NetName=VCC Pin=H1-1
Added Pin To Net: NetName=VCC Pin=IC2-4
Added Pin To Net: NetName=VCC Pin=LM1-1
Added Pin To Net: NetName=VCC Pin=LM2-1
Added Pin To Net: NetName=VCC Pin=P1-2
Added Net: Name=VCC
Added Pin To Net: NetName=WHITEPIN Pin=H2-3
Added Pin To Net: NetName=WHITEPIN Pin=IC1-18
Added Net: Name=WHITEPIN
Added Class: Name=Sheet1
Added Room: Name=Sheet1
